<?xml version="1.0" encoding="utf-8"?>
<!-- Generator: Adobe Illustrator 18.0.0, SVG Export Plug-In . SVG Version: 6.00 Build 0)  -->
<!DOCTYPE svg PUBLIC "-//W3C//DTD SVG 1.1//EN" "http://www.w3.org/Graphics/SVG/1.1/DTD/svg11.dtd">
<svg version="1.1" id="Layer_1" xmlns="http://www.w3.org/2000/svg" xmlns:xlink="http://www.w3.org/1999/xlink" x="0px" y="0px"
	 viewBox="0 0 50 50" enable-background="new 0 0 50 50" xml:space="preserve">
<path d="M41,13h-5.7C35,7,30.5,3,25,3c-5.5,0-10,4-10.3,10H9v35h32V13z M25,6.4c3.6,0,6.6,2.6,6.9,6.6H18.1C18.4,9,21.3,6.4,25,6.4z
	"/>
<path fill="#FFFFFF" d="M31,23.5c0,1.1-0.9,2-2,2c-1.1,0-2-0.9-2-2c0-1.1,0.9-2,2-2C30.1,21.5,31,22.4,31,23.5z"/>
<path fill="#FFFFFF" d="M23,23.5c0,1.1-0.9,2-2,2c-1.1,0-2-0.9-2-2c0-1.1,0.9-2,2-2C22.1,21.5,23,22.4,23,23.5z"/>
<path fill="#FFFFFF" d="M25,38c-5,0-9-5-9-9h2c0,3,3.2,7,7,7s7-4,7-7h2C34,33,30,38,25,38z"/>
</svg>
