<?xml version="1.0" encoding="utf-8"?>
<!-- Generator: Adobe Illustrator 16.2.0, SVG Export Plug-In . SVG Version: 6.00 Build 0)  -->
<!DOCTYPE svg PUBLIC "-//W3C//DTD SVG 1.1//EN" "http://www.w3.org/Graphics/SVG/1.1/DTD/svg11.dtd">
<svg version="1.1" xmlns="http://www.w3.org/2000/svg" xmlns:xlink="http://www.w3.org/1999/xlink" x="0px" y="0px" width="74px"
	 height="74px" viewBox="0 0 74 74" enable-background="new 0 0 74 74" xml:space="preserve">
<g id="Слой_1" display="none">
	<g display="inline">
		<path  d="M73.289,64.383h-3.428V21.787c0-2.26-1.84-4.098-4.099-4.098H8.038c-2.261,0-4.099,1.838-4.099,4.098
			v42.596H0.823c-0.427,0-0.774,0.348-0.774,0.775c0,0.426,0.348,0.775,0.774,0.775h72.466c0.428,0,0.774-0.35,0.774-0.775
			C74.063,64.73,73.717,64.383,73.289,64.383z M27.537,60.295v-2.756h0.617v1.447l0.915-0.904l0.436,0.428l-1.351,1.35v1.387h-0.617
			v-0.09l-1.535-1.531l0.438-0.428L27.537,60.295z M29.511,62.957c0.042-0.514,0.086-1.025,0.143-1.711h-0.024
			c0.791-0.559,1.297-1.479,1.297-2.504c0-0.752-0.264-1.434-0.7-1.961l-0.051-0.059c-0.101-0.113-0.203-0.215-0.315-0.316
			l-0.049-0.039c-0.173-0.145-0.364-0.262-0.564-0.365h15.417v8.381h-15.27C29.44,63.836,29.474,63.396,29.511,62.957z
			 M45.903,64.383v-8.381h17.865v8.381H45.903z M63.769,54.762H45.903V23.946h16.058c0.997,0,1.808,0.811,1.808,1.809V54.762z
			 M44.663,54.762H28.467V23.946h16.196V54.762z M27.234,54.762h-3.319c1.177-1.02,1.097-3.24-0.754-3.869
			c0.613-0.617,0.54-1.436,0.122-1.982l-0.34-0.338c-0.435-0.314-1.039-0.406-1.634-0.051c0.14-1.512-1.047-2.68-2.437-2.68
			c-1.342,0-2.499,1.094-2.457,2.545c-1.537-0.508-2.646,1.398-1.543,2.506c-1.856,0.629-1.931,2.85-0.754,3.869h-4.015v1.24h5.601
			c0.141,0.773,0.82,1.369,1.643,1.369c0.563,0,1.06-0.285,1.363-0.713v-2.111l-2.68-2.682l0.435-0.432l2.245,2.244v-3.26h0.615
			v3.256l2.184-2.182l0.437,0.432l-2.62,2.619v2.162c0.788,1.086,2.854,0.748,3.033-0.703h4.081c-0.992,0.51-1.666,1.543-1.666,2.74
			c0,1.035,0.507,1.945,1.297,2.504H26.04c0.007,0.061,0.013,0.115,0.013,0.168c0.049,0.605,0.093,1.072,0.129,1.543
			c0.036,0.438,0.07,0.879,0.117,1.426h-4.357V60.83h-2.615v-4.068h-0.615v4.068h-2.615v3.553H10.03V25.754
			c0-0.998,0.812-1.809,1.809-1.809h15.396V54.762z M5.813,21.787c0-1.227,0.998-2.224,2.226-2.224h57.725
			c1.228,0,2.224,0.998,2.224,2.224v42.596h-2.344V25.754c0-2.031-1.651-3.683-3.682-3.683H11.839c-2.03,0-3.683,1.652-3.683,3.683
			v38.628H5.813V21.787z"/>
		<path  d="M52.597,26.066c-0.299-0.313-0.791-0.327-1.104-0.029c-0.313,0.297-0.325,0.791-0.03,1.104l9.195,9.697
			c0.154,0.162,0.359,0.244,0.566,0.244c0.193,0,0.386-0.072,0.537-0.215c0.313-0.297,0.326-0.791,0.029-1.104L52.597,26.066z"/>
		<path  d="M54.528,33.281c-0.297-0.313-0.79-0.326-1.104-0.029c-0.313,0.297-0.325,0.791-0.029,1.104l5.009,5.283
			c0.154,0.162,0.36,0.244,0.566,0.244c0.193,0,0.387-0.07,0.539-0.215c0.312-0.297,0.324-0.791,0.028-1.104L54.528,33.281z"/>
		<path  d="M54.227,38.105c-0.297-0.314-0.79-0.328-1.103-0.031c-0.314,0.297-0.327,0.791-0.03,1.104l2.966,3.129
			c0.154,0.162,0.359,0.244,0.566,0.244c0.193,0,0.387-0.07,0.538-0.215c0.313-0.297,0.325-0.791,0.028-1.104L54.227,38.105z"/>
	</g>
</g>
<g id="Слой_2" display="none">
	<g display="inline">
		<path  d="M63.987,46.652l-4.552-10.121c-0.505-1.161-1.746-2.333-3.144-2.333H48.74v-3.612
			c0-2.087-1.729-3.786-3.854-3.786h-3.931c0.109-0.064,0.221-0.126,0.328-0.195c1.691-1.079,3.014-2.524,3.728-4.068
			c0.748-1.627,0.738-3.185-0.028-4.381c-0.771-1.201-2.186-1.863-3.993-1.863c-1.889,0-3.677,0.607-5.317,1.802
			c-1.287,0.94-2.484,2.242-3.556,3.872c-0.542,0.826-0.995,1.646-1.366,2.395c-0.714-1.442-1.738-3.168-3.117-4.65
			c-2.107-2.267-4.502-3.417-7.12-3.417c-1.806,0-3.223,0.662-3.993,1.863c-0.767,1.197-0.776,2.754-0.026,4.382
			c0.71,1.543,2.034,2.988,3.726,4.067c0.108,0.069,0.218,0.131,0.328,0.195h-3.931c-2.125,0-3.854,1.698-3.854,3.786v26.137
			c0,0.013,0,0.022,0,0.033c0.007,0.246,0.125,0.458,0.298,0.604c0.254,1.901,1.838,3.381,3.782,3.479
			c0.191,1.62,1.071,3.034,2.345,3.958h-2.568c-0.313,0-0.567,0.255-0.567,0.568s0.254,0.568,0.567,0.568h15.196
			c0.313,0,0.567-0.255,0.567-0.568s-0.254-0.568-0.567-0.568h-5.654c1.27-0.922,2.149-2.332,2.343-3.946H49.02
			c0.192,1.614,1.069,3.024,2.341,3.946h-3.896c-0.314,0-0.568,0.255-0.568,0.568s0.254,0.568,0.568,0.568h13.836
			c0.311,0,0.565-0.255,0.565-0.568s-0.255-0.568-0.565-0.568h-2.969c1.295-0.938,2.187-2.379,2.357-4.029
			c0.257-0.063,0.488-0.155,0.75-0.275c1.271-0.577,2.142-1.774,2.325-3.135c0.176-0.149,0.296-0.366,0.296-0.619v-9.724
			c0-0.004,0-0.01,0-0.015c0,0,0-0.005,0-0.009C64.061,46.874,64.036,46.76,63.987,46.652z M56.292,35.849
			c0.619,0,1.356,0.709,1.632,1.343l0.006,0.011l4.48,9.967v9.001h-3.353c-1.067-1.078-2.56-1.752-4.21-1.752
			s-3.141,0.674-4.209,1.752H48.74v-2.899V35.849H56.292z M48.999,59.716H28.525c-0.071-0.873-0.341-1.691-0.766-2.41h6.716h15.289
			C49.339,58.024,49.069,58.843,48.999,59.716z M18.464,56.171h-4.049V46.134h12.047v9.65c-1.023-0.852-2.344-1.365-3.787-1.365
			C21.024,54.419,19.534,55.093,18.464,56.171z M35.042,56.171V46.134H47.09v7.138v2.899H35.042z M47.09,44.998H35.042v-6.139H47.09
			V44.998z M33.908,28.451v27.72h-6.311v-27.72H33.908z M26.462,44.998H14.415v-6.139h12.047V44.998z M47.09,30.586v4.437v2.702
			H35.042v-9.273h9.845C46.102,28.451,47.09,29.409,47.09,30.586z M33.08,22.567c0.996-1.51,2.097-2.708,3.273-3.564
			c1.439-1.046,3-1.576,4.638-1.576c1.407,0,2.483,0.476,3.037,1.34c0.552,0.86,0.534,2.03-0.047,3.295
			c-0.622,1.349-1.797,2.622-3.308,3.586c-0.805,0.512-1.647,0.899-2.488,1.151h-7.268C31.312,25.783,32.023,24.168,33.08,22.567z
			 M20.831,25.649c-1.51-0.964-2.684-2.237-3.306-3.586c-0.582-1.265-0.599-2.436-0.048-3.295c0.553-0.864,1.632-1.34,3.038-1.34
			c2.29,0,4.405,1.028,6.288,3.055c1.571,1.689,2.663,3.736,3.329,5.226c-0.181,0.428-0.324,0.798-0.431,1.093h-6.378
			C22.482,26.548,21.636,26.161,20.831,25.649z M16.619,28.451h9.844v9.273H14.415v-7.139
			C14.415,29.409,15.403,28.451,16.619,28.451z M14.197,57.306h3.395c-0.421,0.715-0.691,1.525-0.765,2.389
			C15.498,59.595,14.414,58.601,14.197,57.306z M22.675,64.282c-2.329,0-4.222-1.842-4.222-4.106s1.894-4.108,4.222-4.108
			c2.328,0,4.223,1.844,4.223,4.108S25.003,64.282,22.675,64.282z M54.848,64.282c-2.329,0-4.223-1.842-4.223-4.106
			s1.894-4.108,4.223-4.108c2.327,0,4.223,1.844,4.223,4.108S57.175,64.282,54.848,64.282z M60.971,59.458
			c-0.105,0.05-0.196,0.09-0.281,0.122c-0.087-0.822-0.356-1.591-0.76-2.274h2.697C62.471,58.241,61.854,59.059,60.971,59.458z"/>
		<path  d="M27.383,24.464c-1.962-3.411-4.336-5.212-6.868-5.212c-0.697,0-1.229,0.175-1.419,0.465
			c-0.212,0.315-0.149,0.931,0.162,1.606c0.98,2.128,3.898,3.996,6.245,3.996h0.001l1.391-0.004c0.202,0,0.389-0.108,0.489-0.284
			C27.483,24.855,27.483,24.639,27.383,24.464z M25.5,24.184c-1.89,0-4.423-1.623-5.213-3.335c-0.085-0.184-0.13-0.328-0.153-0.434
			c0.092-0.017,0.217-0.028,0.381-0.028c2.308,0,4.128,1.906,5.365,3.796L25.5,24.184z"/>
		<path  d="M34.613,25.314l1.39,0.004c2.348,0,5.266-1.867,6.245-3.996c0.312-0.675,0.374-1.291,0.164-1.603
			c-0.192-0.293-0.726-0.468-1.422-0.468c-2.533,0-4.907,1.802-6.868,5.212c-0.101,0.175-0.101,0.391,0,0.565
			C34.224,25.206,34.411,25.314,34.613,25.314z M40.99,20.387c0.164,0,0.289,0.011,0.382,0.028c-0.023,0.106-0.07,0.25-0.155,0.434
			c-0.789,1.713-3.321,3.335-5.212,3.335l-0.379-0.001C36.861,22.293,38.682,20.387,40.99,20.387z"/>
		<path  d="M50.737,47.426h9.37c0.192,0,0.372-0.096,0.478-0.258c0.104-0.163,0.121-0.365,0.04-0.541l-4.048-9.004
			c-0.06-0.134-0.132-0.274-0.227-0.428c-0.103-0.169-0.287-0.273-0.485-0.273h-5.128c-0.311,0-0.565,0.255-0.565,0.568v9.37
			C50.172,47.173,50.427,47.426,50.737,47.426z M51.306,38.056h4.223c0.002,0.006,0.006,0.012,0.008,0.021
			c0,0.002,0.004,0.008,0.004,0.008l3.689,8.208h-7.924V38.056z"/>
		<path  d="M22.675,58.304c-1.049,0-1.901,0.841-1.901,1.872c0,1.032,0.852,1.873,1.901,1.873
			c1.049,0,1.903-0.841,1.903-1.873C24.578,59.145,23.725,58.304,22.675,58.304z M22.675,60.913c-0.422,0-0.766-0.331-0.766-0.737
			c0-0.405,0.344-0.735,0.766-0.735c0.424,0,0.769,0.33,0.769,0.735C23.444,60.582,23.099,60.913,22.675,60.913z"/>
		<path  d="M54.848,58.304c-1.049,0-1.902,0.841-1.902,1.872c0,1.032,0.854,1.873,1.902,1.873
			c1.048,0,1.901-0.841,1.901-1.873C56.749,59.145,55.896,58.304,54.848,58.304z M54.848,60.913c-0.424,0-0.768-0.331-0.768-0.737
			c0-0.405,0.344-0.735,0.768-0.735s0.767,0.33,0.767,0.735C55.614,60.582,55.271,60.913,54.848,60.913z"/>
		<path  d="M13.509,64.797h-2.822c-0.313,0-0.567,0.255-0.567,0.568s0.254,0.568,0.567,0.568h2.822
			c0.313,0,0.568-0.255,0.568-0.568S13.822,64.797,13.509,64.797z"/>
	</g>
</g>
<g id="Слой_3" display="none">
	<g display="inline">
		<path  d="M54.032,36.18c-0.021-0.033-0.037-0.059-0.057-0.083c-0.016-0.019-0.034-0.038-0.054-0.055
			c-0.035-0.037-0.055-0.056-0.073-0.072c-0.022-0.018-0.049-0.034-0.074-0.051l-0.04-0.029L36.91,26.424
			c-0.273-0.154-0.626-0.154-0.9,0l-16.856,9.489c-0.038,0.026-0.061,0.041-0.081,0.057c-0.017,0.014-0.031,0.028-0.046,0.043
			l-0.149-0.083l0.116,0.114c-0.017,0.018-0.032,0.034-0.049,0.053c-0.018,0.022-0.03,0.042-0.044,0.064l-0.062,0.094l-5.215,7.014
			c-0.156,0.211-0.216,0.48-0.162,0.739c0.055,0.257,0.219,0.48,0.448,0.609l4.823,2.713v8.258c0,0.33,0.18,0.637,0.469,0.8
			l16.808,9.454c0.046,0.025,0.096,0.042,0.145,0.059c0.028,0.008,0.045,0.015,0.061,0.024c0.179,0.051,0.322,0.045,0.48,0.003
			l0.054-0.023c0.063-0.021,0.114-0.037,0.162-0.063l16.807-9.454c0.289-0.163,0.469-0.47,0.469-0.8v-8.254l4.827-2.717
			c0.229-0.129,0.392-0.353,0.448-0.609c0.055-0.259-0.004-0.526-0.161-0.739L54.032,36.18z M19.956,45.908l-4.236-2.381
			l4.193-5.637l15.195,8.548l-4.193,5.637l-0.125-0.071l-10.539-5.929C20.146,45.995,20.054,45.943,19.956,45.908z M35.543,63.472
			l-0.244-0.138L20.57,55.051v-6.688l10.148,5.709c0.388,0.218,0.92,0.104,1.188-0.253l3.637-4.889V63.472z M35.88,44.753
			l-14.354-8.074l14.354-8.076V44.753z M37.04,28.603l14.356,8.076L37.04,44.753V28.603z M52.35,55.051l-0.083,0.046l-14.889,8.375
			V48.926l3.64,4.893c0.267,0.359,0.804,0.471,1.188,0.253l10.145-5.705V55.051z M42.009,52.075l-4.192-5.637l15.196-8.548
			l4.191,5.637L42.009,52.075z"/>
		<path  d="M39.356,21.299c1.065,0,2.062,0.414,2.804,1.164c0.743,0.75,1.152,1.754,1.153,2.829
			c0,0.409,0.332,0.742,0.742,0.742h0.001c0.411-0.001,0.742-0.334,0.742-0.744c0-1.07,0.413-2.073,1.166-2.825
			c0.752-0.751,1.756-1.167,2.826-1.167c0.41,0,0.742-0.333,0.742-0.743c0-0.411-0.332-0.744-0.742-0.744H48.79h-0.002
			c-1.072,0-2.076-0.409-2.828-1.15c-0.749-0.743-1.163-1.739-1.161-2.806c0-0.411-0.333-0.743-0.743-0.743l0,0
			c-0.411,0-0.744,0.332-0.744,0.743c0,2.218-1.738,3.956-3.955,3.956c-0.41,0-0.743,0.333-0.743,0.744
			C38.613,20.966,38.946,21.299,39.356,21.299z M43.214,19.716c0.332-0.332,0.613-0.699,0.845-1.095
			c0.235,0.397,0.521,0.765,0.856,1.097c0.334,0.33,0.702,0.612,1.101,0.842c-0.398,0.234-0.767,0.519-1.102,0.854
			c-0.336,0.333-0.62,0.704-0.855,1.103c-0.229-0.398-0.512-0.767-0.842-1.1c-0.331-0.336-0.7-0.622-1.096-0.857
			C42.516,20.33,42.884,20.047,43.214,19.716z"/>
		<path  d="M22.159,18.155c0.983,0,1.903,0.381,2.588,1.074c0.686,0.691,1.063,1.619,1.063,2.61
			c0,0.378,0.308,0.686,0.687,0.686h0.001c0.378,0,0.686-0.309,0.685-0.687c0-0.987,0.381-1.913,1.075-2.607
			c0.694-0.693,1.62-1.076,2.608-1.076c0.379,0,0.686-0.307,0.686-0.686s-0.307-0.686-0.686-0.686h-0.001h-0.001
			c-0.99,0-1.918-0.377-2.609-1.063s-1.073-1.604-1.072-2.589c0-0.378-0.308-0.685-0.686-0.685c-0.001,0-0.001,0-0.001,0
			c-0.38,0-0.687,0.307-0.687,0.685c-0.001,2.047-1.604,3.651-3.65,3.651c-0.379,0-0.687,0.307-0.687,0.686
			S21.78,18.155,22.159,18.155z M25.72,16.694c0.306-0.306,0.566-0.646,0.78-1.011c0.216,0.367,0.48,0.707,0.789,1.013
			c0.309,0.305,0.649,0.564,1.016,0.777c-0.366,0.216-0.708,0.478-1.017,0.787s-0.572,0.65-0.788,1.018
			c-0.213-0.367-0.474-0.708-0.777-1.015c-0.307-0.31-0.646-0.574-1.013-0.79C25.075,17.26,25.415,17,25.72,16.694z"/>
		<path  d="M10.391,39.144L10.391,39.144c-1.631-0.002-2.906-1.278-2.906-2.905c0-0.409-0.333-0.743-0.743-0.743
			s-0.744,0.334-0.744,0.743c0,1.627-1.287,2.903-2.933,2.905c0,0-0.003,0-0.005,0H3.059H3.058
			c-0.408,0.006-0.734,0.336-0.734,0.743c0,0.41,0.333,0.744,0.743,0.744c0.001,0,0.004,0,0.004,0c1.612,0,2.927,1.313,2.927,2.93
			c0,0.413,0.334,0.745,0.744,0.745c0.411,0,0.743-0.332,0.743-0.745c0-0.787,0.3-1.526,0.845-2.076
			c0.545-0.553,1.275-0.855,2.061-0.855h0.001c0.411,0,0.742-0.333,0.742-0.744C11.133,39.476,10.802,39.144,10.391,39.144z
			 M7.272,40.438c-0.203,0.204-0.383,0.426-0.54,0.66c-0.319-0.475-0.729-0.884-1.205-1.205c0.237-0.157,0.457-0.337,0.664-0.541
			c0.204-0.203,0.388-0.422,0.547-0.656c0.156,0.232,0.336,0.453,0.538,0.654c0.201,0.202,0.422,0.382,0.655,0.538
			C7.696,40.05,7.476,40.231,7.272,40.438z"/>
		<path  d="M71.047,40.653h-0.002c-1.63,0-2.904-1.276-2.904-2.905c0-0.409-0.332-0.741-0.743-0.741
			c-0.41,0-0.744,0.332-0.744,0.741c0,1.629-1.287,2.905-2.933,2.905c0,0-0.003,0-0.004,0h-0.002h-0.001
			c-0.408,0.005-0.735,0.337-0.735,0.746s0.333,0.741,0.743,0.741c0.002,0,0.004,0,0.004,0c1.613,0,2.928,1.315,2.928,2.934
			c0,0.408,0.334,0.742,0.744,0.742c0.412,0,0.743-0.334,0.743-0.744c0-0.791,0.299-1.528,0.846-2.078
			c0.544-0.551,1.274-0.855,2.059-0.855h0.002c0.41,0,0.742-0.332,0.742-0.741C71.789,40.985,71.457,40.653,71.047,40.653z
			 M67.929,41.95c-0.202,0.203-0.383,0.424-0.54,0.66c-0.319-0.477-0.73-0.886-1.204-1.205c0.236-0.158,0.456-0.338,0.663-0.541
			c0.204-0.204,0.388-0.424,0.547-0.658c0.156,0.234,0.335,0.452,0.538,0.654c0.201,0.204,0.422,0.384,0.654,0.541
			C68.353,41.56,68.132,41.741,67.929,41.95z"/>
		<path  d="M65.538,22.441c-1.433-1.404-3.327-2.164-5.334-2.145c-2.005,0.021-3.882,0.823-5.279,2.251l-6.163,6.165
			c-0.281,0.282-0.284,0.734-0.012,1.019c0.004,0.005,0.008,0.007,0.012,0.012c0.284,0.284,0.745,0.284,1.031-0.001l6.167-6.17
			c1.131-1.155,2.645-1.801,4.261-1.818c1.616-0.016,3.143,0.597,4.297,1.728c1.849,1.812,1.883,4.792,0.071,6.641
			c-0.676,0.689-1.578,1.075-2.543,1.085s-1.876-0.356-2.565-1.031c-1.081-1.067-1.1-2.799-0.04-3.879
			c0.791-0.808,2.09-0.82,2.897-0.03c0.289,0.282,0.749,0.277,1.03-0.01c0.282-0.289,0.278-0.749-0.011-1.032
			c-0.669-0.656-1.555-1.01-2.49-1.001c-0.936,0.01-1.813,0.384-2.468,1.054c-1.62,1.655-1.582,4.321,0.063,5.939
			c0.967,0.947,2.246,1.462,3.599,1.448c1.354-0.016,2.62-0.555,3.57-1.523C68.004,28.72,67.966,24.815,65.538,22.441z"/>
		<path  d="M13.516,25.564c-0.238-0.263-0.644-0.28-0.905-0.044c-0.262,0.24-0.28,0.644-0.042,0.907
			c0.788,0.868,0.726,2.215-0.142,3.003c-0.557,0.508-1.278,0.768-2.029,0.732c-0.753-0.037-1.446-0.361-1.953-0.919
			c-1.366-1.501-1.257-3.837,0.246-5.203c0.94-0.857,2.159-1.296,3.431-1.235c1.271,0.059,2.442,0.61,3.3,1.551
			c0.017,0.018,0.032,0.034,0.049,0.049l7.09,6.257c0.161,0.141,0.375,0.188,0.57,0.143c0.125-0.029,0.242-0.096,0.335-0.2
			c0.233-0.265,0.209-0.671-0.058-0.904l-7.063-6.234c-1.084-1.178-2.561-1.868-4.163-1.942c-1.612-0.077-3.158,0.481-4.354,1.567
			c-2.025,1.843-2.173,4.99-0.33,7.014c1.521,1.672,4.12,1.796,5.792,0.272C14.68,29.114,14.781,26.954,13.516,25.564z"/>
	</g>
</g>
<g id="Слой_4" display="none">
	<g display="inline">
		<path  d="M16.024,43.773c1.07,0,2.12-0.436,3.152-1.307c0.195-0.164,0.292-0.357,0.292-0.578
			c0-0.199-0.072-0.375-0.219-0.529c-0.157-0.164-0.35-0.248-0.574-0.248c-0.15,0-0.371,0.098-0.664,0.293
			c-0.436,0.297-0.72,0.48-0.855,0.551c-0.383,0.195-0.76,0.293-1.132,0.293c-0.382,0-0.711-0.145-0.984-0.438
			c-0.274-0.293-0.412-0.645-0.412-1.055c0-0.896,0.435-1.859,1.301-2.887c0.62-0.734,1.166-1.104,1.638-1.104
			c0.24,0,0.389,0.014,0.445,0.041c0.074,0.033,0.15,0.135,0.226,0.303c0.161,0.357,0.41,0.535,0.748,0.535
			c0.27,0,0.477-0.102,0.619-0.305c0.108-0.154,0.163-0.324,0.163-0.512c0-0.42-0.032-0.787-0.095-1.104
			c-0.091-0.439-0.327-0.658-0.71-0.658c-0.232,0-0.432,0.08-0.597,0.242c-0.102-0.023-0.219-0.039-0.352-0.051
			c-0.134-0.012-0.283-0.018-0.448-0.018c-0.976,0-1.931,0.557-2.864,1.666c-1.1,1.311-1.649,2.594-1.649,3.85
			c0,0.803,0.277,1.502,0.833,2.096C14.467,43.467,15.181,43.773,16.024,43.773z"/>
		<path  d="M20.663,43.557c0.165,0.141,0.351,0.211,0.557,0.211c0.293,0,0.521-0.135,0.687-0.404
			c0.429-0.83,0.728-1.449,0.9-1.863c0.315-0.057,0.77-0.105,1.363-0.146c0.63-0.041,1.084-0.082,1.361-0.125
			c0.143,0.58,0.313,1.088,0.513,1.531c0.3,0.688,0.598,1.037,0.895,1.049c0.206,0.006,0.391-0.064,0.555-0.209
			c0.163-0.148,0.245-0.328,0.245-0.545c0-0.162-0.068-0.404-0.203-0.727c-0.165-0.393-0.261-0.639-0.287-0.744
			c-0.33-1.393-0.609-2.629-0.839-3.709c-0.161-0.803-0.279-1.406-0.354-1.807c-0.139-0.498-0.414-0.748-0.828-0.748
			c-0.217,0-0.794,0.711-1.733,2.133c-0.652,0.99-1.246,1.947-1.778,2.871c-0.349,0.1-0.53,0.242-0.546,0.42
			c-0.008,0.104,0.016,0.211,0.067,0.328c-0.548,1.107-0.821,1.756-0.821,1.947C20.415,43.238,20.497,43.418,20.663,43.557z
			 M24.839,38.033c0.158,0.779,0.281,1.414,0.371,1.9c-0.108,0.016-0.373,0.037-0.793,0.064c-0.357,0.021-0.619,0.051-0.788,0.088
			C24.143,39.221,24.546,38.535,24.839,38.033z"/>
		<path  d="M29.641,43.836c0.225,0,0.412-0.074,0.563-0.223c0.149-0.146,0.225-0.328,0.225-0.543
			c0-0.121-0.021-0.727-0.062-1.818c1.362,0.412,2.611,1.152,3.749,2.219c0.168,0.156,0.354,0.234,0.557,0.234
			c0.217,0,0.405-0.076,0.563-0.227c0.157-0.152,0.235-0.334,0.235-0.543c0-0.184-0.065-0.352-0.196-0.502
			c-0.503-0.578-1.251-1.145-2.246-1.699c0.671-0.26,1.176-0.576,1.511-0.955c0.336-0.377,0.504-0.811,0.504-1.303
			c0-1.193-0.801-2.193-2.402-3c-0.368-0.188-0.814-0.313-1.341-0.377c-0.021-0.004-0.489-0.039-1.4-0.105
			c-0.338-0.027-0.603,0.086-0.794,0.342c-0.146,0.199-0.219,0.422-0.219,0.664l-0.012,4.543c0,0.281-0.004,0.703-0.012,1.264
			c-0.008,0.563-0.011,0.982-0.011,1.264c0,0.215,0.075,0.396,0.225,0.543C29.228,43.762,29.415,43.836,29.641,43.836z
			 M30.405,36.58c0.409,0.027,0.629,0.041,0.659,0.045c0.56,0.057,1.092,0.268,1.598,0.637c0.533,0.391,0.8,0.795,0.8,1.215
			c0,0.084-0.08,0.205-0.239,0.367c-0.16,0.16-0.335,0.291-0.526,0.387c-0.442,0.23-1.123,0.344-2.043,0.344
			c-0.071,0-0.153-0.002-0.248-0.006V36.58z"/>
		<path  d="M39.479,35.697c-0.109-0.035-0.454-0.189-1.035-0.467c-0.499-0.234-0.812-0.35-0.936-0.35
			c-0.225,0-0.437,0.102-0.635,0.307c-0.2,0.203-0.299,0.41-0.299,0.615c0,0.418,0.009,1.043,0.025,1.875
			c0.017,0.834,0.024,1.459,0.024,1.875c0,0.375-0.017,0.938-0.053,1.689c-0.035,0.75-0.054,1.313-0.054,1.688
			c0,0.209,0.075,0.389,0.226,0.537s0.336,0.225,0.558,0.229c0.247,0.158,0.587,0.283,1.019,0.383
			c0.356,0.078,0.672,0.117,0.945,0.117c1.129,0,2.007-0.201,2.629-0.607c0.556-0.361,0.992-0.838,1.312-1.436
			c0.319-0.586,0.478-1.203,0.478-1.852c0-1.076-0.463-2.059-1.39-2.949C41.517,36.605,40.579,36.053,39.479,35.697z M41.801,41.473
			c-0.198,0.367-0.463,0.656-0.797,0.871c-0.353,0.225-0.934,0.338-1.745,0.338c-0.232,0-0.443-0.023-0.633-0.07
			s-0.357-0.117-0.504-0.209v-5.574c1.197,0.492,1.978,0.852,2.342,1.08c1.088,0.68,1.631,1.484,1.631,2.416
			C42.095,40.721,41.998,41.104,41.801,41.473z"/>
		<path  d="M70.36,19.133H19.324c-2.069,0-3.753,1.683-3.753,3.752v2.498H3.753C1.684,25.384,0,27.067,0,29.136V62.18
			c0,2.07,1.684,3.754,3.753,3.754h51.036c2.069,0,3.752-1.684,3.752-3.754v-2.496H70.36c2.07,0,3.753-1.684,3.753-3.754V22.886
			C74.113,20.816,72.431,19.133,70.36,19.133z M58.541,31.154h13.525v3.59H58.541V31.154z M17.618,22.886
			c0-0.94,0.766-1.706,1.706-1.706H70.36c0.94,0,1.706,0.766,1.706,1.706v6.222H58.54c-0.016-2.056-1.691-3.724-3.751-3.724H17.618
			V22.886z M54.789,63.887H3.753c-0.94,0-1.706-0.766-1.706-1.707V29.136c0-0.94,0.766-1.706,1.706-1.706h51.036
			c0.94,0,1.705,0.766,1.705,1.706v29.491c0,0.012-0.002,0.021-0.002,0.033c0,0.01,0.002,0.023,0.002,0.033v3.486
			C56.494,63.121,55.729,63.887,54.789,63.887z M70.36,57.637H58.541V36.791h13.525V55.93C72.066,56.871,71.301,57.637,70.36,57.637
			z"/>
		<path  d="M41.908,50.666H8.244c-0.565,0-1.022,0.459-1.022,1.023c0,0.566,0.457,1.023,1.022,1.023h33.664
			c0.565,0,1.023-0.457,1.023-1.023C42.932,51.125,42.474,50.666,41.908,50.666z"/>
		<path  d="M26.482,56.125H8.244c-0.565,0-1.022,0.457-1.022,1.023c0,0.564,0.457,1.023,1.022,1.023h18.238
			c0.565,0,1.023-0.459,1.023-1.023C27.506,56.582,27.048,56.125,26.482,56.125z"/>
	</g>
</g>
<g id="Слой_6">
	<g>
		<path  d="M62.399,63.949H11.713c-0.556,0-1.006,0.451-1.006,1.006s0.45,1.006,1.006,1.006h50.687
			c0.556,0,1.006-0.451,1.006-1.006S62.955,63.949,62.399,63.949z"/>
		<path  d="M14.973,46.991v9.052c0,3.086,2.511,5.596,5.597,5.596h33.687c3.086,0,5.595-2.51,5.595-5.596V43.896
			c1.646-1.376,2.549-3.194,2.549-5.132c0-4.005-3.905-7.262-8.705-7.262h-5.245c1.072-1.103,1.734-2.604,1.734-4.26
			c0-3.374-2.744-6.119-6.119-6.119c-0.73,0-1.43,0.135-2.079,0.372c-0.549-0.326-1.377-1.756-0.522-5.81
			c1.13-5.374,0.609-6.702-0.047-7.292c-0.428-0.385-0.938-0.406-1.271-0.298L39.916,8.17l-0.17,0.17
			c-5.813,5.813-9.079,11.963-9.506,12.793c-0.064-0.002-0.128-0.01-0.193-0.01c-3.374,0-6.119,2.745-6.119,6.119
			c0,1.656,0.663,3.157,1.734,4.26H20.42c-4.801,0-8.707,3.905-8.707,8.706C11.713,42.858,12.9,45.325,14.973,46.991z
			 M57.645,56.043c0,1.87-1.521,3.39-3.389,3.39H20.569c-1.868,0-3.389-1.52-3.389-3.39v-7.756c1.031,0.415,2.119,0.626,3.239,0.626
			c1.354,0,2.699-0.319,3.903-0.928c1.618,2.871,4.295,4.579,7.188,4.579c2.892,0,5.567-1.708,7.187-4.579
			c1.217,0.616,2.529,0.928,3.904,0.928c2.835,0,5.484-1.376,7.113-3.689c2.437,1.046,5.48,1.053,7.929,0.011V56.043z
			 M48.173,27.242c0,2.265-1.842,4.107-4.108,4.107c-2.265,0-4.106-1.842-4.106-4.107s1.842-4.107,4.106-4.107
			C46.331,23.135,48.173,24.977,48.173,27.242z M30.047,23.135c2.266,0,4.107,1.842,4.107,4.107s-1.842,4.107-4.107,4.107
			c-2.265,0-4.106-1.842-4.106-4.107S27.782,23.135,30.047,23.135z M32.296,21.556c0.87-1.581,3.563-6.172,7.815-10.702
			c-0.011,0.796-0.141,2.152-0.618,4.417c-0.689,3.277-0.51,5.663,0.534,7.088c0.046,0.063,0.094,0.113,0.141,0.169
			c-1.356,1.124-2.221,2.819-2.221,4.714c0,1.656,0.663,3.157,1.734,4.26h-1.522h-2.207h-1.521c1.072-1.103,1.735-2.604,1.735-4.26
			C36.167,24.662,34.56,22.455,32.296,21.556z M20.42,33.709h33.274c3.583,0,6.497,2.268,6.497,5.055s-2.914,5.056-6.497,5.056
			c-1.384,0-2.712-0.341-3.839-0.988c-0.254-0.146-0.567-0.183-0.853-0.104c-0.289,0.083-0.526,0.274-0.669,0.54
			c-1.136,2.12-3.332,3.438-5.731,3.438c-1.341,0-2.631-0.409-3.73-1.183c-0.27-0.189-0.619-0.248-0.937-0.158
			c-0.324,0.094-0.583,0.322-0.714,0.63c-1.146,2.692-3.334,4.364-5.71,4.364c-2.377,0-4.566-1.672-5.713-4.364
			c-0.13-0.308-0.391-0.536-0.712-0.63c-0.097-0.027-0.199-0.04-0.303-0.04c-0.229,0-0.449,0.068-0.635,0.198
			c-1.101,0.773-2.391,1.183-3.729,1.183c-3.585,0-6.5-2.913-6.5-6.497S16.835,33.709,20.42,33.709z"/>
		<path  d="M47.056,56.771c0.182,0.338,0.528,0.528,0.886,0.528c0.162,0,0.325-0.038,0.478-0.121l6.626-3.586
			c0.488-0.266,0.671-0.875,0.406-1.363c-0.266-0.49-0.878-0.672-1.364-0.406l-6.626,3.586
			C46.974,55.674,46.791,56.284,47.056,56.771z"/>
		<path  d="M47.429,53.4l4.456-2.411c0.49-0.266,0.672-0.875,0.407-1.363c-0.267-0.489-0.878-0.671-1.363-0.406
			l-4.457,2.411c-0.488,0.266-0.67,0.876-0.407,1.365c0.183,0.336,0.529,0.527,0.887,0.527C47.112,53.523,47.277,53.483,47.429,53.4
			z"/>
	</g>
</g>
</svg>
